2019-03-14T00:03:13+00:00 DEBUG 
====Stripe Version: 4.1.14====
====Start Log====
Stripe Payment Request live mode requires SSL.
====End Log====


2019-03-14T00:25:35+00:00 DEBUG 
====Stripe Version: 4.1.14====
====Start Log====
Stripe Payment Request live mode requires SSL.
====End Log====


2019-03-14T01:05:05+00:00 DEBUG 
====Stripe Version: 4.1.14====
====Start Log====
Stripe Payment Request live mode requires SSL.
====End Log====


2019-03-14T01:12:16+00:00 DEBUG 
====Stripe Version: 4.1.14====
====Start Log====
Stripe Payment Request live mode requires SSL.
====End Log====


2019-03-14T01:19:16+00:00 DEBUG 
====Stripe Version: 4.1.14====
====Start Log====
Stripe Payment Request live mode requires SSL.
====End Log====


2019-03-14T01:26:18+00:00 DEBUG 
====Stripe Version: 4.1.14====
====Start Log====
Stripe Payment Request live mode requires SSL.
====End Log====


2019-03-14T01:33:11+00:00 DEBUG 
====Stripe Version: 4.1.14====
====Start Log====
Stripe Payment Request live mode requires SSL.
====End Log====


2019-03-14T01:55:25+00:00 DEBUG 
====Stripe Version: 4.1.14====
====Start Log====
Stripe Payment Request live mode requires SSL.
====End Log====


2019-03-14T01:59:50+00:00 DEBUG 
====Stripe Version: 4.1.14====
====Start Log====
Stripe Payment Request live mode requires SSL.
====End Log====


2019-03-14T02:08:19+00:00 DEBUG 
====Stripe Version: 4.1.14====
====Start Log====
Stripe Payment Request live mode requires SSL.
====End Log====


2019-03-14T02:08:20+00:00 DEBUG 
====Stripe Version: 4.1.14====
====Start Log====
Stripe Payment Request live mode requires SSL.
====End Log====


2019-03-14T02:08:21+00:00 DEBUG 
====Stripe Version: 4.1.14====
====Start Log====
Stripe Payment Request live mode requires SSL.
====End Log====


2019-03-14T02:23:36+00:00 DEBUG 
====Stripe Version: 4.1.14====
====Start Log====
Stripe Payment Request live mode requires SSL.
====End Log====


2019-03-14T03:50:12+00:00 DEBUG 
====Stripe Version: 4.1.14====
====Start Log====
Stripe Payment Request live mode requires SSL.
====End Log====


2019-03-14T04:31:25+00:00 DEBUG 
====Stripe Version: 4.1.14====
====Start Log====
Stripe Payment Request live mode requires SSL.
====End Log====


2019-03-14T05:43:17+00:00 DEBUG 
====Stripe Version: 4.1.14====
====Start Log====
Stripe Payment Request live mode requires SSL.
====End Log====


2019-03-14T05:47:18+00:00 DEBUG 
====Stripe Version: 4.1.14====
====Start Log====
Stripe Payment Request live mode requires SSL.
====End Log====


2019-03-14T06:11:02+00:00 DEBUG 
====Stripe Version: 4.1.14====
====Start Log====
Stripe Payment Request live mode requires SSL.
====End Log====


2019-03-14T06:11:07+00:00 DEBUG 
====Stripe Version: 4.1.14====
====Start Log====
Stripe Payment Request live mode requires SSL.
====End Log====


2019-03-14T06:18:14+00:00 DEBUG 
====Stripe Version: 4.1.14====
====Start Log====
Stripe Payment Request live mode requires SSL.
====End Log====


2019-03-14T06:18:14+00:00 DEBUG 
====Stripe Version: 4.1.14====
====Start Log====
Stripe Payment Request live mode requires SSL.
====End Log====


2019-03-14T06:18:15+00:00 DEBUG 
====Stripe Version: 4.1.14====
====Start Log====
Stripe Payment Request live mode requires SSL.
====End Log====


2019-03-14T06:26:05+00:00 DEBUG 
====Stripe Version: 4.1.14====
====Start Log====
Stripe Payment Request live mode requires SSL.
====End Log====


2019-03-14T06:26:06+00:00 DEBUG 
====Stripe Version: 4.1.14====
====Start Log====
Stripe Payment Request live mode requires SSL.
====End Log====


2019-03-14T06:26:08+00:00 DEBUG 
====Stripe Version: 4.1.14====
====Start Log====
Stripe Payment Request live mode requires SSL.
====End Log====


2019-03-14T08:22:43+00:00 DEBUG 
====Stripe Version: 4.1.14====
====Start Log====
Stripe Payment Request live mode requires SSL.
====End Log====


2019-03-14T09:00:53+00:00 DEBUG 
====Stripe Version: 4.1.14====
====Start Log====
Stripe Payment Request live mode requires SSL.
====End Log====


2019-03-14T09:15:12+00:00 DEBUG 
====Stripe Version: 4.1.14====
====Start Log====
Stripe Payment Request live mode requires SSL.
====End Log====


2019-03-14T09:15:33+00:00 DEBUG 
====Stripe Version: 4.1.14====
====Start Log====
Stripe Payment Request live mode requires SSL.
====End Log====


2019-03-14T09:21:55+00:00 DEBUG 
====Stripe Version: 4.1.14====
====Start Log====
Stripe Payment Request live mode requires SSL.
====End Log====


2019-03-14T09:28:39+00:00 DEBUG 
====Stripe Version: 4.1.14====
====Start Log====
Stripe Payment Request live mode requires SSL.
====End Log====


2019-03-14T09:35:33+00:00 DEBUG 
====Stripe Version: 4.1.14====
====Start Log====
Stripe Payment Request live mode requires SSL.
====End Log====


2019-03-14T09:42:20+00:00 DEBUG 
====Stripe Version: 4.1.14====
====Start Log====
Stripe Payment Request live mode requires SSL.
====End Log====


2019-03-14T11:32:22+00:00 DEBUG 
====Stripe Version: 4.1.14====
====Start Log====
Stripe Payment Request live mode requires SSL.
====End Log====


2019-03-14T11:32:24+00:00 DEBUG 
====Stripe Version: 4.1.14====
====Start Log====
Stripe Payment Request live mode requires SSL.
====End Log====


2019-03-14T11:32:26+00:00 DEBUG 
====Stripe Version: 4.1.14====
====Start Log====
Stripe Payment Request live mode requires SSL.
====End Log====


2019-03-14T11:32:28+00:00 DEBUG 
====Stripe Version: 4.1.14====
====Start Log====
Stripe Payment Request live mode requires SSL.
====End Log====


2019-03-14T11:32:29+00:00 DEBUG 
====Stripe Version: 4.1.14====
====Start Log====
Stripe Payment Request live mode requires SSL.
====End Log====


2019-03-14T11:32:31+00:00 DEBUG 
====Stripe Version: 4.1.14====
====Start Log====
Stripe Payment Request live mode requires SSL.
====End Log====


2019-03-14T11:32:32+00:00 DEBUG 
====Stripe Version: 4.1.14====
====Start Log====
Stripe Payment Request live mode requires SSL.
====End Log====


2019-03-14T11:32:34+00:00 DEBUG 
====Stripe Version: 4.1.14====
====Start Log====
Stripe Payment Request live mode requires SSL.
====End Log====


2019-03-14T11:32:36+00:00 DEBUG 
====Stripe Version: 4.1.14====
====Start Log====
Stripe Payment Request live mode requires SSL.
====End Log====


2019-03-14T11:55:57+00:00 DEBUG 
====Stripe Version: 4.1.14====
====Start Log====
Stripe Payment Request live mode requires SSL.
====End Log====


2019-03-14T12:03:18+00:00 DEBUG 
====Stripe Version: 4.1.14====
====Start Log====
Stripe Payment Request live mode requires SSL.
====End Log====


2019-03-14T12:28:07+00:00 DEBUG 
====Stripe Version: 4.1.14====
====Start Log====
sources/src_1EDsfKL7UCIXpQ7Uyowm0RHD
====End Log====


2019-03-14T12:28:08+00:00 DEBUG 
====Stripe Version: 4.1.14====
====Start Log====
Info: Begin processing payment for order 28058 for the amount of 38.96
====End Log====


2019-03-14T12:28:08+00:00 DEBUG 
====Stripe Version: 4.1.14====
====Start Log====
charges request: Array
(
    [currency] => gbp
    [amount] => 3896
    [description] => Alcohol Free Drinks - Order 28058
    [statement_descriptor] => Dry Drinker
    [capture] => true
    [expand[]] => balance_transaction
    [metadata] => Array
        (
            [customer_name] => C R Myers
            [customer_email] => clive@myersaccountants.co.uk
            [order_id] => 28058
        )

    [source] => src_1EDsfKL7UCIXpQ7Uyowm0RHD
)

====End Log====


2019-03-14T12:28:09+00:00 DEBUG 
====Stripe Version: 4.1.14====
====Start Log====
Processing response: stdClass Object
(
    [id] => ch_1EDsfML7UCIXpQ7UDRR02p8b
    [object] => charge
    [amount] => 3896
    [amount_refunded] => 0
    [application] => 
    [application_fee] => 
    [application_fee_amount] => 
    [balance_transaction] => stdClass Object
        (
            [id] => txn_1EDsfNL7UCIXpQ7UMYT278Wo
            [object] => balance_transaction
            [amount] => 3896
            [available_on] => 1553126400
            [created] => 1552566488
            [currency] => gbp
            [description] => Alcohol Free Drinks - Order 28058
            [exchange_rate] => 
            [fee] => 75
            [fee_details] => Array
                (
                    [0] => stdClass Object
                        (
                            [amount] => 75
                            [application] => 
                            [currency] => gbp
                            [description] => Stripe processing fees
                            [type] => stripe_fee
                        )

                )

            [net] => 3821
            [source] => ch_1EDsfML7UCIXpQ7UDRR02p8b
            [status] => pending
            [type] => charge
        )

    [captured] => 1
    [created] => 1552566488
    [currency] => gbp
    [customer] => 
    [description] => Alcohol Free Drinks - Order 28058
    [destination] => 
    [dispute] => 
    [failure_code] => 
    [failure_message] => 
    [fraud_details] => stdClass Object
        (
        )

    [invoice] => 
    [livemode] => 1
    [metadata] => stdClass Object
        (
            [customer_name] => C R Myers
            [customer_email] => clive@myersaccountants.co.uk
            [order_id] => 28058
        )

    [on_behalf_of] => 
    [order] => 
    [outcome] => stdClass Object
        (
            [network_status] => approved_by_network
            [reason] => 
            [risk_level] => normal
            [seller_message] => Payment complete.
            [type] => authorized
        )

    [paid] => 1
    [payment_intent] => 
    [receipt_email] => 
    [receipt_number] => 
    [receipt_url] => https://pay.stripe.com/receipts/acct_16z1IwL7UCIXpQ7U/ch_1EDsfML7UCIXpQ7UDRR02p8b/rcpt_EhHDQvE8vRjOzHnL7YweIfQEGdCDJvR
    [refunded] => 
    [refunds] => stdClass Object
        (
            [object] => list
            [data] => Array
                (
                )

            [has_more] => 
            [total_count] => 0
            [url] => /v1/charges/ch_1EDsfML7UCIXpQ7UDRR02p8b/refunds
        )

    [review] => 
    [shipping] => 
    [source] => stdClass Object
        (
            [id] => src_1EDsfKL7UCIXpQ7Uyowm0RHD
            [object] => source
            [amount] => 
            [card] => stdClass Object
                (
                    [exp_month] => 3
                    [exp_year] => 2021
                    [last4] => 0919
                    [country] => GB
                    [brand] => Visa
                    [address_line1_check] => pass
                    [address_zip_check] => pass
                    [cvc_check] => pass
                    [funding] => debit
                    [fingerprint] => 4hg49bNKuJh6XWis
                    [three_d_secure] => optional
                    [name] => 
                    [tokenization_method] => 
                    [dynamic_last4] => 
                )

            [client_secret] => src_client_secret_EhHDH10LnNshQZqYxbn5YBZD
            [created] => 1552566489
            [currency] => 
            [flow] => none
            [livemode] => 1
            [metadata] => stdClass Object
                (
                )

            [owner] => stdClass Object
                (
                    [address] => stdClass Object
                        (
                            [city] => Essex
                            [country] => GB
                            [line1] => 20 Dickens Rise
                            [line2] => Chigwell
                            [postal_code] => IG7 6PA
                            [state] => 
                        )

                    [email] => clive@myersaccountants.co.uk
                    [name] => C R Myers
                    [phone] => +442084188980
                    [verified_address] => 
                    [verified_email] => 
                    [verified_name] => 
                    [verified_phone] => 
                )

            [statement_descriptor] => 
            [status] => consumed
            [type] => card
            [usage] => reusable
        )

    [source_transfer] => 
    [statement_descriptor] => Dry Drinker
    [status] => succeeded
    [transfer_data] => 
    [transfer_group] => 
)

====End Log====


2019-03-14T12:34:58+00:00 DEBUG 
====Stripe Version: 4.1.14====
====Start Log====
Stripe Payment Request live mode requires SSL.
====End Log====


2019-03-14T13:01:09+00:00 DEBUG 
====Stripe Version: 4.1.14====
====Start Log====
Stripe Payment Request live mode requires SSL.
====End Log====


2019-03-14T13:09:38+00:00 DEBUG 
====Stripe Version: 4.1.14====
====Start Log====
Stripe Payment Request live mode requires SSL.
====End Log====


2019-03-14T13:44:22+00:00 DEBUG 
====Stripe Version: 4.1.14====
====Start Log====
Stripe Payment Request live mode requires SSL.
====End Log====


2019-03-14T14:25:25+00:00 DEBUG 
====Stripe Version: 4.1.14====
====Start Log====
Stripe Payment Request live mode requires SSL.
====End Log====


2019-03-14T14:25:57+00:00 DEBUG 
====Stripe Version: 4.1.14====
====Start Log====
Stripe Payment Request live mode requires SSL.
====End Log====


2019-03-14T14:25:58+00:00 DEBUG 
====Stripe Version: 4.1.14====
====Start Log====
Stripe Payment Request live mode requires SSL.
====End Log====


2019-03-14T14:26:00+00:00 DEBUG 
====Stripe Version: 4.1.14====
====Start Log====
Stripe Payment Request live mode requires SSL.
====End Log====


2019-03-14T14:48:20+00:00 DEBUG 
====Stripe Version: 4.1.14====
====Start Log====
Stripe Payment Request live mode requires SSL.
====End Log====


2019-03-14T14:53:40+00:00 DEBUG 
====Stripe Version: 4.1.14====
====Start Log====
Stripe Payment Request live mode requires SSL.
====End Log====


2019-03-14T15:00:27+00:00 DEBUG 
====Stripe Version: 4.1.14====
====Start Log====
Stripe Payment Request live mode requires SSL.
====End Log====


2019-03-14T15:07:23+00:00 DEBUG 
====Stripe Version: 4.1.14====
====Start Log====
Stripe Payment Request live mode requires SSL.
====End Log====


2019-03-14T15:14:13+00:00 DEBUG 
====Stripe Version: 4.1.14====
====Start Log====
Stripe Payment Request live mode requires SSL.
====End Log====


2019-03-14T15:20:59+00:00 DEBUG 
====Stripe Version: 4.1.14====
====Start Log====
Stripe Payment Request live mode requires SSL.
====End Log====


2019-03-14T16:00:55+00:00 DEBUG 
====Stripe Version: 4.1.14====
====Start Log====
Stripe Payment Request live mode requires SSL.
====End Log====


2019-03-14T16:50:00+00:00 DEBUG 
====Stripe Version: 4.1.14====
====Start Log====
Stripe Payment Request live mode requires SSL.
====End Log====


2019-03-14T16:59:36+00:00 DEBUG 
====Stripe Version: 4.1.14====
====Start Log====
Stripe Payment Request live mode requires SSL.
====End Log====


2019-03-14T17:46:02+00:00 DEBUG 
====Stripe Version: 4.1.14====
====Start Log====
Stripe Payment Request live mode requires SSL.
====End Log====


2019-03-14T18:16:10+00:00 DEBUG 
====Stripe Version: 4.1.14====
====Start Log====
Stripe Payment Request live mode requires SSL.
====End Log====


2019-03-14T18:19:38+00:00 DEBUG 
====Stripe Version: 4.1.14====
====Start Log====
Stripe Payment Request live mode requires SSL.
====End Log====


2019-03-14T18:27:15+00:00 DEBUG 
====Stripe Version: 4.1.14====
====Start Log====
Stripe Payment Request live mode requires SSL.
====End Log====


2019-03-14T18:27:16+00:00 DEBUG 
====Stripe Version: 4.1.14====
====Start Log====
Stripe Payment Request live mode requires SSL.
====End Log====


2019-03-14T18:27:17+00:00 DEBUG 
====Stripe Version: 4.1.14====
====Start Log====
Stripe Payment Request live mode requires SSL.
====End Log====


2019-03-14T18:28:24+00:00 DEBUG 
====Stripe Version: 4.1.14====
====Start Log====
Stripe Payment Request live mode requires SSL.
====End Log====


2019-03-14T18:30:37+00:00 DEBUG 
====Stripe Version: 4.1.14====
====Start Log====
Stripe Payment Request live mode requires SSL.
====End Log====


2019-03-14T18:30:38+00:00 DEBUG 
====Stripe Version: 4.1.14====
====Start Log====
Stripe Payment Request live mode requires SSL.
====End Log====


2019-03-14T18:30:38+00:00 DEBUG 
====Stripe Version: 4.1.14====
====Start Log====
Stripe Payment Request live mode requires SSL.
====End Log====


2019-03-14T18:30:41+00:00 DEBUG 
====Stripe Version: 4.1.14====
====Start Log====
Stripe Payment Request live mode requires SSL.
====End Log====


2019-03-14T18:30:42+00:00 DEBUG 
====Stripe Version: 4.1.14====
====Start Log====
Stripe Payment Request live mode requires SSL.
====End Log====


2019-03-14T18:30:43+00:00 DEBUG 
====Stripe Version: 4.1.14====
====Start Log====
Stripe Payment Request live mode requires SSL.
====End Log====


2019-03-14T18:45:41+00:00 DEBUG 
====Stripe Version: 4.1.14====
====Start Log====
Stripe Payment Request live mode requires SSL.
====End Log====


2019-03-14T18:46:02+00:00 DEBUG 
====Stripe Version: 4.1.14====
====Start Log====
Stripe Payment Request live mode requires SSL.
====End Log====


2019-03-14T19:23:24+00:00 DEBUG 
====Stripe Version: 4.1.14====
====Start Log====
Stripe Payment Request live mode requires SSL.
====End Log====


2019-03-14T19:40:22+00:00 DEBUG 
====Stripe Version: 4.1.14====
====Start Log====
Stripe Payment Request live mode requires SSL.
====End Log====


2019-03-14T19:42:07+00:00 DEBUG 
====Stripe Version: 4.1.14====
====Start Log====
Stripe Payment Request live mode requires SSL.
====End Log====


2019-03-14T19:47:43+00:00 DEBUG 
====Stripe Version: 4.1.14====
====Start Log====
Stripe Payment Request live mode requires SSL.
====End Log====


2019-03-14T19:48:07+00:00 DEBUG 
====Stripe Version: 4.1.14====
====Start Log====
Stripe Payment Request live mode requires SSL.
====End Log====


2019-03-14T19:49:34+00:00 DEBUG 
====Stripe Version: 4.1.14====
====Start Log====
Stripe Payment Request live mode requires SSL.
====End Log====


2019-03-14T19:51:06+00:00 DEBUG 
====Stripe Version: 4.1.14====
====Start Log====
Stripe Payment Request live mode requires SSL.
====End Log====


2019-03-14T19:52:37+00:00 DEBUG 
====Stripe Version: 4.1.14====
====Start Log====
Stripe Payment Request live mode requires SSL.
====End Log====


2019-03-14T19:54:10+00:00 DEBUG 
====Stripe Version: 4.1.14====
====Start Log====
Stripe Payment Request live mode requires SSL.
====End Log====


2019-03-14T21:38:42+00:00 DEBUG 
====Stripe Version: 4.1.14====
====Start Log====
Stripe Payment Request live mode requires SSL.
====End Log====


2019-03-14T22:01:34+00:00 DEBUG 
====Stripe Version: 4.1.14====
====Start Log====
Stripe Payment Request live mode requires SSL.
====End Log====


2019-03-14T23:46:45+00:00 DEBUG 
====Stripe Version: 4.1.14====
====Start Log====
Stripe Payment Request live mode requires SSL.
====End Log====


2019-03-14T23:53:07+00:00 DEBUG 
====Stripe Version: 4.1.14====
====Start Log====
Stripe Payment Request live mode requires SSL.
====End Log====


