15408,variation,,"Clausthaler Unfiltered Alcohol Free 0.5% - 6/12 x 330ml - Case of 6 Bottles",1,0,visible,,,,,taxable,parent,1,,0,0,,,,,0,,,8.99,,,,,,,id:15341,,,,,,0,,,,,,,,,,,,,,,,,,,,,,,,,,,,,,,,,,,,,,,,,,,,,,,"Select case size","Case of 6 Bottles",,1,no,,,,no,no,no,,no,,,,,,,,,,,,,,,,,,,,,,,,,,,,,,,,,,,,,,,,,,,,,,,,,,,,,,,,,,,,,,,,,,,,,,,,,,,,,,,,
15407,variation,,"Clausthaler Unfiltered Alcohol Free 0.5% - 6/12 x 330ml - Case of 12 Bottles",1,0,visible,,,,,taxable,parent,1,,0,0,,,,,0,,,15.99,,,,,,,id:15341,,,,,,0,,,,,,,,,,,,,,,,,,,,,,,,,,,,,,,,,,,,,,,,,,,,,,,"Select case size","Case of 12 Bottles",,1,no,,,,no,no,no,,no,,,,,,,,,,,,,,,,,,,,,,,,,,,,,,,,,,,,,,,,,,,,,,,,,,,,,,,,,,,,,,,,,,,,,,,,,,,,,,,,
15358,variation,,"Clausthaler Lemon Alcohol Free 0.5% - 6/12 x 330ml - Case of 12 Bottles",1,0,visible,,,,,taxable,parent,1,,0,0,,,,,0,,,15.99,,,,,,,id:15342,,,,,,0,,,,,,,,,,,,,,,,,,,,,,,,,,,,,,,,,,,,,,,,,,,,,,,"Select case size","Case of 12 Bottles",,1,no,,,,no,no,no,,no,,,,,,,,,,,,,,,,,,,,,,,,,,,,,,,,,,,,,,,,,,,,,,,,,,,,,,,,,,,,,,,,,,,,,,,,,,,,,,,,
15357,variation,,"Clausthaler Lemon Alcohol Free 0.5% - 6/12 x 330ml - Case of 6 Bottles",1,0,visible,,,,,taxable,parent,1,,0,0,,,,,0,,,8.99,,,,,,,id:15342,,,,,,0,,,,,,,,,,,,,,,,,,,,,,,,,,,,,,,,,,,,,,,,,,,,,,,"Select case size","Case of 6 Bottles",,1,no,,,,no,no,no,,no,,,,,,,,,,,,,,,,,,,,,,,,,,,,,,,,,,,,,,,,,,,,,,,,,,,,,,,,,,,,,,,,,,,,,,,,,,,,,,,,
14465,variation,,"Vintense Ice Mocktails Mixed Case Alcohol Free 0% - 6/12x200ml - Case of 12 Bottles",1,0,visible,,,,,taxable,parent,1,,0,0,,,,,0,,,23.99,,,,,,,id:14445,,,,,,0,,,,,,,,,,,,,,,,,,,,,,,,,,,,,,,,,,,,,,,,,,,,,,,"Select case size","Case of 12 Bottles",,1,no,,,,no,no,no,,no,,,,,,,,,,,,,,,,,,,,,,,,,,,,,,,,,,,,,,,,,,,,,,,,,,,,,,,,,,,,,,,,,,,,,,,,,,,,,,,,
14464,variation,,"Vintense Ice Mocktails Mixed Case Alcohol Free 0% - 6/12x200ml - Case of 6 Bottles",1,0,visible,,,,,taxable,parent,1,,0,0,,,,,0,,,11.99,,,,,,,id:14445,,,,,,0,,,,,,,,,,,,,,,,,,,,,,,,,,,,,,,,,,,,,,,,,,,,,,,"Select case size","Case of 6 Bottles",,1,no,,,,no,no,no,,no,,,,,,,,,,,,,,,,,,,,,,,,,,,,,,,,,,,,,,,,,,,,,,,,,,,,,,,,,,,,,,,,,,,,,,,,,,,,,,,,
10532,variation,,"Exclusive ü.NN India Pale Ale 0.5% 6/12 x 330ml - Case of 12 Bottles",1,0,visible,,,,,taxable,parent,1,,0,0,,,,,0,,,26.99,,,,,,,id:2965,,,,,,0,,,,,,,,,,,,,,,,,,,,,,,,,,,,,,,,,,,,,,,,,,,,,,,"Select case size","Case of 12 Bottles",,1,no,,,,no,no,no,,no,,,,,,,,,,,,,,,,,,,,,,,,,,,,,,,,,,,,,,,,,,,,,,,,,,,,,,,,,,,,,,,,,,,,,,,,,,,,,,,,
9497,variation,,"Stiegl Freibier Alcohol Free Beer 0.5% - 6/12 x 500ml - Case of 12 Bottles",1,0,visible,,,,,taxable,parent,1,,0,0,,,,,0,,,24.99,,,,,,,id:8387,,,,,,0,,,,,,,,,,,,,,,,,,,,,,,,,,,,,,,,,,,,,,,,,,,,,,,"Select case size","Case of 12 Bottles",,1,no,,,,no,no,no,,no,,,,,,,,,,,,,,,,,,,,,,,,,,,,,,,,,,,,,,,,,,,,,,,,,,,,,,,,,,,,,,,,,,,,,,,,,,,,,,,,
5210,variation,,"Exclusive Zerohero® Alcohol Free Mixed Beer Case – 12 x330ml - Case of 12 Bottles",1,0,visible,,,,,taxable,,1,,0,0,10,,,,0,,,19.99,,,,,,,DDSJU160,,,,,,0,,,,,,,,,,,,,,,,,,,,,,,,,,,,,,,,,,,,,,,,,,,,,,,"Select case size","Case of 12 Bottles",,1,no,,,,no,no,no,,no,,,,,,,,,,,,,,,,,,,,,,,,,,,,,,,,,,,,,,,,,,,,,,,,,,,,,,,,,,,,,,,,,,,,,,,,,,,,,,,,
949,variation,DDSKU095,"Nirvana Kosmic Stout 0.0% – 6/12 x 500ml - Case of 6 Bottles",1,0,visible,,,,,taxable,,1,,0,0,5,,,,0,,,15.99,,,,,,,DDSKU153-1,,,,,,0,,,,,,,,,,,,,,,,,,,,,,,,,,,,,,,,,,,,,,,,,,,,,,,"Select case size","Case of 6 Bottles",,1,no,,,,no,no,no,8.16,no,,,,,,,,,,,,,,,,,,,,,,,,,,,,,,,,,,,,,,,,,,,,,,,,,,,,,,,,,,,,,,,,,,,,,,,,,,,,,,,,
525,variation,DDSKU093,"Rothaus Wheat Beer 0.4% – 6/12 x 500ml - Case of 6 Bottles",1,0,visible,,,,,taxable,,1,,0,0,5,,,,0,,,14.99,,,,,,,DDSKU107,,,,,,0,,,,,,,,,,,,,,,,,,,,,,,,,,,,,,,,,,,,,,,,,,,,,,,"Select case size","Case of 6 Bottles",,1,no,,,,no,no,no,7.98,no,,,,,,,,,,,,,,,,,,,,,,,,,,,,,,,,,,,,,,,,,,,,,,,,,,,,,,,,,,,,,,,,,,,,,,,,,,,,,,,,
539,variation,DDSKU091,"Paulaner Alcohol Free Wheat Beer 6/12 x 500ml - Case of 6 Bottles",1,0,visible,,,,,taxable,,1,,0,0,5,,,,0,,,13.99,,,,,,,DDSKU106,,,,,,0,,,,,,,,,,,,,,,,,,,,,,,,,,,,,,,,,,,,,,,,,,,,,,,"Select case size","Case of 6 Bottles",,1,no,,,,no,no,no,5.10,no,,,,,,,,,,,,,,,,,,,,,,,,,,,,,,,,,,,,,,,,,,,,,,,,,,,,,,,,,,,,,,,,,,,,,,,,,,,,,,,,
13227,simple,,"Benediktiner Wheat Beer Alcohol Free 500ml",'-1',0,hidden,"Benediktiner Wheat Beer Alcohol Free is an isotonic* thirst quencher, rich in vitamins and low in calories.

It contains 40% fewer calories than Bitburger's Benediktiner Wheat Beer.
<h3>Tasting notes</h3>
Full-bodied and balanced, fruity hops-based wheat beer. Golden amber colour. Top-fermented.

Best served ice-cold, straight from the bottle.
<h3>Closest thing to heaven?</h3>
Benediktiner beers are brewed and bottled to a traditional recipe at Ettal Abbey monastery in Lich, Germany.

Benedictine monks have been brewing beer on that site since 1609 and now they’ve teamed up with big German brewers Bitburger to make the Benediktiner range.","Benediktiner Wheat Beer Alcohol Free is an isotonic* thirst quencher, rich in vitamins and low in calories.

It contains 40% fewer calories than Bitburger's full-strength Benediktiner Wheat Beer.
<h3>Tasting notes</h3>
Full-bodied and balanced, fruity hops-based wheat beer. Golden amber colour. Top-fermented.

Best served ice-cold, straight from the bottle.
<h3>Closest thing to heaven?</h3>
Benediktiner beers are brewed and bottled to a traditionalrecipe at Ettal Abbey monastery in Lich, Germany.

Benedictine monks have been brewing beer on that site since 1609 and now they’ve teamed up with big German brewers Bitburger to make the Benediktiner range.
<h3>Isotonic*</h3>
Isotonic drinks can quickly replace the fluids, salts and minerals we lose when sweating. Indeed, they are easy for our systems to take on board. So, you could settle for a sugary sports drink after exercise – or reach for a tasty and isotonic low-alcohol beer instead.

&nbsp;",,,taxable,,1,,0,0,,,,,0,,,,Beer,,,https://drydrinker.com/wp-content/uploads/2018/07/bitburger-benediktiner-600x600.jpg,,,,,,,,,1,,,,,,,,,,,,,,,,,,,,,,,,,,,,,,,,,,,,,,,,,,,,,,,,,,,,,,,,,,,,90,28,,,,,,,,no,no,no,,,,,,,,,,,,,,,,,,,,,local_1,50,,,no,1,,off,off,off,off,off,off,off,off,,off,off,off,off,off,off,off,off,,off,off,off,off,off,off,off,off,,off,off,off,off,off,off,off,off,,"Benediktiner Wheat Beer Alcohol Free","Benediktiner Wheat Beer Alcohol Free","Benediktiner Wheat Beer Alcohol Free | Dry Drinker | Isotonic","Benediktiner Wheat Beer Alcohol Free is an isotonic thirst quencher – rich in vitamins, low in calories. Buy from UK’s most trusted alcohol-free store",74
14980,variation,,"St Peter's Without® Gold 12x 330ml - Case of 12 Bottles",1,0,visible,,,,,taxable,parent,1,,0,0,,,,,0,,,15.99,,,,,,,DDSKU166-2,,,,,,1,,,,,,,,,,,,,,,,,,,,,,,,,,,,,,,,,,,,,,,,,,,,,,,"Select case size","Case of 12 Bottles",,1,no,,,,no,no,no,,no,,,,,,,,,,,,,,,,,,,,,,,,,,,,,,,,,,,,,,,,,,,,,,,,,,,,,,,,,,,,,,,,,,,,,,,,,,,,,,,,
14547,variation,,"Old Mout Berries &amp; Cherries Alcohol Free Cider  0% 500ml - Case of 6 Bottles",1,0,visible,,,,,taxable,parent,0,,0,0,,,,,0,,,13.99,,,,,,,id:14546,,,,,,1,,,,,,,,,,,,,,,,,,,,,,,,,,,,,,,,,,,,,,,,,,,,,,,"Select case size","Case of 6 Bottles",,1,yes,,,,no,no,no,,no,,,,,,,,,,,,,,,,,,,,,,,,,,,,,,,,,,,,,,,,,,,,,,,,,,,,,,,,,,,,,,,,,,,,,,,,,,,,,,,,
14470,variation,,"Vintense Ice Bellini Alcohol Free Mocktail 0% – 200ml - Case of 12 Bottles",1,0,visible,,,,,taxable,parent,1,,0,0,,,,,0,,,23.99,,,,,,,id:14334,,,,,,1,,,,,,,,,,,,,,,,,,,,,,,,,,,,,,,,,,,,,,,,,,,,,,,"Select case size","Case of 12 Bottles",,1,no,,,,no,no,no,,no,,,,,,,,,,,,,,,,,,,,,,,,,,,,,,,,,,,,,,,,,,,,,,,,,,,,,,,,,,,,,,,,,,,,,,,,,,,,,,,,
14468,variation,,"Vintense Ice Americano Spritz Alcohol Free Mocktail 0% - 200ml - Case of 12 Bottles",1,0,visible,,,,,taxable,parent,1,,0,0,,,,,0,,,23.99,,,,,,,id:14332,,,,,,1,,,,,,,,,,,,,,,,,,,,,,,,,,,,,,,,,,,,,,,,,,,,,,,"Select case size","Case of 12 Bottles",,1,no,,,,no,no,no,,no,,,,,,,,,,,,,,,,,,,,,,,,,,,,,,,,,,,,,,,,,,,,,,,,,,,,,,,,,,,,,,,,,,,,,,,,,,,,,,,,
14466,variation,,"Vintense Ice Hugo Alcohol Free Mocktail 0% - 200ml - Case of 12 Bottles",1,0,visible,,,,,taxable,parent,1,,0,0,,,,,0,,,23.99,,,,,,,id:14335,,,,,,1,,,,,,,,,,,,,,,,,,,,,,,,,,,,,,,,,,,,,,,,,,,,,,,"Select case size","Case of 12 Bottles",,1,no,,,,no,no,no,,no,,,,,,,,,,,,,,,,,,,,,,,,,,,,,,,,,,,,,,,,,,,,,,,,,,,,,,,,,,,,,,,,,,,,,,,,,,,,,,,,
14438,variation,,"Lowenbräu Alcohol Free Wheat Beer 0.5% – 6/12 x 500ml - Case of 12 Bottles",1,0,visible,,,,,taxable,parent,1,,0,0,,,,,0,,,23.99,,,,,,,id:5378,,,,,,1,,,,,,,,,,,,,,,,,,,,,,,,,,,,,,,,,,,,,,,,,,,,,,,"Select case size","Case of 12 Bottles",,1,no,,,,no,no,no,,no,,,,,,,,,,,,,,,,,,,,,,,,,,,,,,,,,,,,,,,,,,,,,,,,,,,,,,,,,,,,,,,,,,,,,,,,,,,,,,,,
14349,variation,,"Nirvana Ananda Buchabeer 0.5% - 6/12 x 330ml - Case of 12 Bottles",1,0,visible,,,,,taxable,parent,1,,0,0,,,,,0,,,27.99,,,,,,,id:14317,,,,,,1,,,,,,,,,,,,,,,,,,,,,,,,,,,,,,,,,,,,,,,,,,,,,,,"Select case size","Case of 12 Bottles",,1,no,,,,no,no,no,,no,,,,,,,,,,,,,,,,,,,,,,,,,,,,,,,,,,,,,,,,,,,,,,,,,,,,,,,,,,,,,,,,,,,,,,,,,,,,,,,,
14347,variation,,"Nirvana Zen & Berries Alcohol Free Beer 0.5% - 6/12 x 330ml - 12 Cans",1,0,visible,,,,,taxable,parent,1,,0,0,,,,,0,,,27.99,,,,,,,id:14319,,,,,,1,,,,,,,,,,,,,,,,,,,,,,,,,,,,,,,,,,,,,,,,,,,,,,,"Select case size","12 Cans",,1,no,,,,no,no,no,,no,,,,,,,,,,,,,,,,,,,,,,,,,,,,,,,,,,,,,,,,,,,,,,,,,,,,,,,,,,,,,,,,,,,,,,,,,,,,,,,,
13822,variation,,"Veltins Alcohol Free Pilsner 0.0% – 6/12 x 330ml - Case of 6 Bottles",1,0,visible,,,,,taxable,,1,,0,0,4,,,,0,,,9.99,,,,,,,DDSKU136-1,,,,,,1,,,,,,,,,,,,,,,,,,,,,,,,,,,,,,,,,,,,,,,,,,,,,,,"Select case size","Case of 6 Bottles",,1,no,,,,no,no,no,4.32,no,,,,,,,,,,,,,,,,,,,,,,,,,,,,,,,,,,,,,,,,,,,,,,,,,,,,,,,,,,,,,,,,,,,,,,,,,,,,,,,,
13789,variation,,"Braxzz Mixed Case Collection  12 x 330ml - Case of 12 Bottles",1,0,visible,,,,,taxable,parent,1,,0,0,,,,,0,,,24.99,,,,,,,id:13787,,,,,,1,,,,,,,,,,,,,,,,,,,,,,,,,,,,,,,,,,,,,,,,,,,,,,,"Select case size","Case of 12 Bottles",,1,no,,,,no,no,no,,no,,,,,,,,,,,,,,,,,,,,,,,,,,,,,,,,,,,,,,,,,,,,,,,,,,,,,,,,,,,,,,,,,,,,,,,,,,,,,,,,
13782,variation,,"Braxzz Rebel Low Alcohol IPA 0.2% - 6/12 x 330ml - Case of 6 Bottles",1,0,visible,,,,,taxable,parent,1,,0,0,,,,,0,,,12.99,,,,,,,id:13781,,,,,,1,,,,,,,,,,,,,,,,,,,,,,,,,,,,,,,,,,,,,,,,,,,,,,,"Select case size","Case of 6 Bottles",,1,no,,,,no,no,no,,no,,,,,,,,,,,,,,,,,,,,,,,,,,,,,,,,,,,,,,,,,,,,,,,,,,,,,,,,,,,,,,,,,,,,,,,,,,,,,,,,
13779,variation,,"Braxzz Orange IPA low alcohol 0.2% - 6/12 x 330ml - Case of 6 Bottles",1,0,visible,,,,,taxable,parent,1,,0,0,,,,,0,,,12.99,,,,,,,id:13777,,,,,,1,,,,,,,,,,,,,,,,,,,,,,,,,,,,,,,,,,,,,,,,,,,,,,,"Select case size","Case of 6 Bottles",,1,no,,,,no,no,no,,no,,,,,,,,,,,,,,,,,,,,,,,,,,,,,,,,,,,,,,,,,,,,,,,,,,,,,,,,,,,,,,,,,,,,,,,,,,,,,,,,
13767,variation,,"Fruh Sport Fassbrause Alcohol Free 0.0% - 6/12 x 330ml - Case of 6 Bottles",1,0,visible,,,,,taxable,parent,1,,0,0,,,,,0,,,9.99,,,,,,,id:13677,,,,,,1,,,,,,,,,,,,,,,,,,,,,,,,,,,,,,,,,,,,,,,,,,,,,,,"Select case size","Case of 6 Bottles",,1,no,,,,no,no,no,,no,,,,,,,,,,,,,,,,,,,,,,,,,,,,,,,,,,,,,,,,,,,,,,,,,,,,,,,,,,,,,,,,,,,,,,,,,,,,,,,,
13762,variation,,"Lindeboom Alcohol free Pilsner 0.5% - 6/12 x 300ml - Case of 6 Bottles",1,0,visible,,,,,taxable,parent,1,15,0,0,,,,,0,,,8.99,,,,,,,id:13567,,,,,,1,,,,,,,,,,,,,,,,,,,,,,,,,,,,,,,,,,,,,,,,,,,,,,,"Select case size","Case of 6 Bottles",,1,no,,,,no,no,no,,no,,,,,,,,,,,,,,,,,,,,,,,,,,,,,,,,,,,,,,,,,,,,,,,,,,,,,,,,,,,,,,,,,,,,,,,,,,,,,,,,
13359,variation,,"Big Easy Low Alcohol Pale Ale 0.5% - 6/12 x 330ml - Case of 6 Bottles",1,0,visible,,,,,taxable,parent,1,,0,0,,,,,0,,,12.99,,,,,,,id:13224,,,,,,1,,,,,,,,,,,,,,,,,,,,,,,,,,,,,,,,,,,,,,,,,,,,,,,"Select case size","Case of 6 Bottles",,1,no,,,,no,no,no,,no,,,,,,,,,,,,,,,,,,,,,,,,,,,,,,,,,,,,,,,,,,,,,,,,,,,,,,,,,,,,,,,,,,,,,,,,,,,,,,,,
13263,variation,,"Fruh Kölsch 0.0% alcohol free 500ml - Case of 12 Bottles",1,0,hidden,,,,,taxable,parent,0,,0,0,,,,,0,,,24.99,,,,,,,id:3729,,,,,,1,,,,,,,,,,,,,,,,,,,,,,,,,,,,,,,,,,,,,,,,,,,,,,,"Select case size","Case of 12 Bottles",,1,no,,,,no,no,no,,no,,,,,,,,,,,,,,,,,,,,,,,,,,,,,,,,,,,,,,,,,,,,,,,,,,,,,,,,,,,,,,,,,,,,,,,,,,,,,,,,
13056,variation,,"Real Kombucha Dry Dragon 330ml (Copy) - Case of 12 Bottles",1,0,hidden,,,,,taxable,parent,1,,0,0,,,,,0,,,25.99,,,,,,,id:13055,,,,,,1,,,,,,,,,,,,,,,,,,,,,,,,,,,,,,,,,,,,,,,,,,,,,,,"Select case size","Case of 12 Bottles",,1,no,,,,no,no,no,,no,,,,,,,,,,,,,,,,,,,,,,,,,,,,,,,,,,,,,,,,,,,,,,,,,,,,,,,,,,,,,,,,,,,,,,,,,,,,,,,,
13049,variation,,"Real Kombucha Royal Flush 6/12 x 330ml - Case of 12 Bottles",1,0,visible,,,,,taxable,parent,1,,0,0,,,,,0,,,25.99,,,,,,,id:12794,,,,,,1,,,,,,,,,,,,,,,,,,,,,,,,,,,,,,,,,,,,,,,,,,,,,,,"Select case size","Case of 12 Bottles",,1,no,,,,no,no,no,,no,,,,,,,,,,,,,,,,,,,,,,,,,,,,,,,,,,,,,,,,,,,,,,,,,,,,,,,,,,,,,,,,,,,,,,,,,,,,,,,,
13047,variation,,"Real Kombucha Smoke House 6/12 x 330ml - Case of 12 Bottles",1,0,visible,,,,,taxable,parent,1,,0,0,,,,,0,,,25.99,,,,,,,id:12796,,,,,,1,,,,,,,,,,,,,,,,,,,,,,,,,,,,,,,,,,,,,,,,,,,,,,,"Select case size","Case of 12 Bottles",,1,no,,,,no,no,no,,no,,,,,,,,,,,,,,,,,,,,,,,,,,,,,,,,,,,,,,,,,,,,,,,,,,,,,,,,,,,,,,,,,,,,,,,,,,,,,,,,
13045,variation,,"Real Kombucha Dry Dragon 6/12 x 330ml - Case of 12 Bottles",1,0,visible,,,,,taxable,parent,1,,0,0,,,,,0,,,25.99,,,,,,,id:12792,,,,,,1,,,,,,,,,,,,,,,,,,,,,,,,,,,,,,,,,,,,,,,,,,,,,,,"Select case size","Case of 12 Bottles",,1,no,,,,no,no,no,,no,,,,,,,,,,,,,,,,,,,,,,,,,,,,,,,,,,,,,,,,,,,,,,,,,,,,,,,,,,,,,,,,,,,,,,,,,,,,,,,,
13034,variation,,"Sheppy’s Low Alcohol Classic Cider 0.5% 500ml - Case of 6 Bottles",1,0,visible,,,,,taxable,parent,1,,0,0,,,,,0,,,12.99,,,,,,,id:13031,,,,,,1,,,,,,,,,,,,,,,,,,,,,,,,,,,,,,,,,,,,,,,,,,,,,,,"Select case size","Case of 6 Bottles",,1,no,,,,no,no,no,,no,,,,,,,,,,,,,,,,,,,,,,,,,,,,,,,,,,,,,,,,,,,,,,,,,,,,,,,,,,,,,,,,,,,,,,,,,,,,,,,,
12967,variation,,"Real Kombucha Mixed Case 6/12 x 330ml - Case of 12 Bottles",1,0,visible,,,,,taxable,parent,1,,0,0,,,,,0,,,25.99,,,,,,,id:12798,,,,,,1,,,,,,,,,,,,,,,,,,,,,,,,,,,,,,,,,,,,,,,,,,,,,,,"Select case size","Case of 12 Bottles",,1,no,,,,no,no,no,,no,,,,,,,,,,,,,,,,,,,,,,,,,,,,,,,,,,,,,,,,,,,,,,,,,,,,,,,,,,,,,,,,,,,,,,,,,,,,,,,,
12915,variation,,"Monte Rosso Aperitivo 6/12 x 275ml - 12 bottles",1,0,visible,,,,,taxable,parent,1,,0,0,,,,,0,,,20.99,,,,,,,id:12903,,,,,,1,,,,,,,,,,,,,,,,,,,,,,,,,,,,,,,,,,,,,,,,,,,,,,,"Select case size","12 bottles",,1,no,,,,no,no,no,,no,,,,,,,,,,,,,,,,,,,,,,,,,,,,,,,,,,,,,,,,,,,,,,,,,,,,,,,,,,,,,,,,,,,,,,,,,,,,,,,,
12754,variation,,"Elkington’s Sparkling 'Gin' Rhubarb 6/12 x 275ml - 12 bottles",1,0,visible,,,,,taxable,parent,1,,0,0,8,,,,0,,,23.99,,,,,,,id:3222,,,,,,1,,,,,,,,,,,,,,,,,,,,,,,,,,,,,,,,,,,,,,,,,,,,,,,"Select case size","12 bottles",,1,no,,,,no,no,no,,no,,,,,,,,,,,,,,,,,,,,,,,,,,,,,,,,,,,,,,,,,,,,,,,,,,,,,,,,,,,,,,,,,,,,,,,,,,,,,,,,
12454,variation,DD9522466-1-1-2,"Adnams Ghost Ship Alcohol Free 0.5% - 6/12 x 330ml cans - 6 Cans",1,0,hidden,,,,,taxable,,0,,0,0,4,,,,0,,,11.99,,,,,,,DDSKU167-2-2,,,,,,1,,,,,,,,,,,,,,,,,,,,,,,,,,,,,,,,,,,,,,,,,,,,,,,"Select case size","6 Cans",,1,no,,,,no,no,no,6.60,no,,,,,,,,,,,,,,,,,,,,,,,,,,,,,,,,,,,,,,,,,,,,,,,,,,,,,,,,,,,,,,,,,,,,,,,,,,,,,,,,
12033,variation,,"Adnams Ghost Ship Alcohol Free 0.5% ABV - 6/12 x 500ml - Case of 12 Bottles",1,0,hidden,,,,,taxable,parent,0,,0,0,,,,,0,,,23.99,,,,,,,id:12032,,,,,,1,,,,,,,,,,,,,,,,,,,,,,,,,,,,,,,,,,,,,,,,,,,,,,,"Select case size","Case of 12 Bottles",,1,no,,,,no,no,no,,no,,,,,,,,,,,,,,,,,,,,,,,,,,,,,,,,,,,,,,,,,,,,,,,,,,,,,,,,,,,,,,,,,,,,,,,,,,,,,,,,
11630,variation,,"Exclusive: Braxzz Porter Alcohol Free 0.0% - 6/12 x 330ml - Case of 12 Bottles",1,0,visible,,,,,taxable,parent,1,,0,0,8,,,,0,,,24.99,,,,,,,id:9803,,,,,,1,,,,,,,,,,,,,,,,,,,,,,,,,,,,,,,,,,,,,,,,,,,,,,,"Select case size","Case of 12 Bottles",,1,no,,,,no,no,no,,no,,,,,,,,,,,,,,,,,,,,,,,,,,,,,,,,,,,,,,,,,,,,,,,,,,,,,,,,,,,,,,,,,,,,,,,,,,,,,,,,
11305,variation,,"Jarr Kombucha Mixed Case - 6/12 x 240ml - Case of 6 Bottles",1,0,visible,,,,,taxable,parent,1,,0,0,,,,,0,,,12.99,,,,,,,id:11242,,,,,,1,,,,,,,,,,,,,,,,,,,,,,,,,,,,,,,,,,,,,,,,,,,,,,,"Select case size","Case of 6 Bottles",,1,no,,,,no,no,no,,no,,,,,,,,,,,,,,,,,,,,,,,,,,,,,,,,,,,,,,,,,,,,,,,,,,,,,,,,,,,,,,,,,,,,,,,,,,,,,,,,
11303,variation,,"Ginger Jarr Kombucha - 6/12 x 240ml - Case of 6 Bottles",1,0,visible,,,,,taxable,parent,1,,0,0,,,,,0,,,12.99,,,,,,,id:11240,,,,,,1,,,,,,,,,,,,,,,,,,,,,,,,,,,,,,,,,,,,,,,,,,,,,,,"Select case size","Case of 6 Bottles",,1,no,,,,no,no,no,,no,,,,,,,,,,,,,,,,,,,,,,,,,,,,,,,,,,,,,,,,,,,,,,,,,,,,,,,,,,,,,,,,,,,,,,,,,,,,,,,,
11301,variation,,"Passion Fruit Jarr Kombucha - 6/12 x 240ml - Case of 6 Bottles",1,0,visible,,,,,taxable,parent,1,,0,0,,,,,0,,,12.99,,,,,,,id:11241,,,,,,1,,,,,,,,,,,,,,,,,,,,,,,,,,,,,,,,,,,,,,,,,,,,,,,"Select case size","Case of 6 Bottles",,1,no,,,,no,no,no,,no,,,,,,,,,,,,,,,,,,,,,,,,,,,,,,,,,,,,,,,,,,,,,,,,,,,,,,,,,,,,,,,,,,,,,,,,,,,,,,,,
11299,variation,,"Original Jarr Kombucha - 6/12 x 240ml - Case of 6 Bottles",1,0,visible,,,,,taxable,parent,1,,0,0,,,,,0,,,12.99,,,,,,,id:11238,,,,,,1,,,,,,,,,,,,,,,,,,,,,,,,,,,,,,,,,,,,,,,,,,,,,,,"Select case size","Case of 6 Bottles",,1,no,,,,no,no,no,,no,,,,,,,,,,,,,,,,,,,,,,,,,,,,,,,,,,,,,,,,,,,,,,,,,,,,,,,,,,,,,,,,,,,,,,,,,,,,,,,,
10984,variation,,"Mikkeller Weird Weather 0.3%  6/12 x 500 ml can - 12 Cans",1,0,visible,,,,,taxable,parent,1,,0,0,,,,,0,,,38.99,,,,,,,id:8729,,,,,,1,,,,,,,,,,,,,,,,,,,,,,,,,,,,,,,,,,,,,,,,,,,,,,,"Select case size","12 Cans",,1,no,,,,no,no,no,,no,,,,,,,,,,,,,,,,,,,,,,,,,,,,,,,,,,,,,,,,,,,,,,,,,,,,,,,,,,,,,,,,,,,,,,,,,,,,,,,,
10823,variation,,"Microhistory Monteball 2020 Alcohol Free Beer 0.0% - 6/12 330ml - Case of 6 Bottles",1,0,visible,,,,,taxable,parent,1,,0,0,,,,,0,,,12.99,,,,,,,id:10501,,,,,,1,,,,,,,,,,,,,,,,,,,,,,,,,,,,,,,,,,,,,,,,,,,,,,,"Select case size","Case of 6 Bottles",,1,no,,,,no,no,no,,no,,,,,,,,,,,,,,,,,,,,,,,,,,,,,,,,,,,,,,,,,,,,,,,,,,,,,,,,,,,,,,,,,,,,,,,,,,,,,,,,
10727,variation,,"Vilniaus Alus 0.5% - 6/12 330ml - Case of 6 Bottles",1,0,visible,,,,,taxable,parent,1,,0,0,,,,,0,,,10.99,,,,,,,id:10574,,,,,,1,,,,,,,,,,,,,,,,,,,,,,,,,,,,,,,,,,,,,,,,,,,,,,,"Select case size","Case of 6 Bottles",,1,no,,,,no,no,no,,no,,,,,,,,,,,,,,,,,,,,,,,,,,,,,,,,,,,,,,,,,,,,,,,,,,,,,,,,,,,,,,,,,,,,,,,,,,,,,,,,
10518,variation,,"Big Drop Sour 0.5% - 6/12 x 330ml - Case of 6 Bottles",1,0,hidden,,,,,taxable,parent,0,,0,0,,,,,0,,,11.34,,,,,,,id:10515,,,,,,1,,,,,,,,,,,,,,,,,,,,,,,,,,,,,,,,,,,,,,,,,,,,,,,"Select case size","Case of 6 Bottles",,1,no,,,,no,no,no,,no,,,,,,,,,,,,,,,,,,,,,,,,,,,,,,,,,,,,,,,,,,,,,,,,,,,,,,,,,,,,,,,,,,,,,,,,,,,,,,,,
10116,variation,,"Best of British Mixed Craft Beer Box - Case of 12 Bottles",1,0,visible,,,,,taxable,parent,1,,0,0,10,,,,0,,,19.99,,,,,,,id:10114,,,,,,1,,,,,,,,,,,,,,,,,,,,,,,,,,,,,,,,,,,,,,,,,,,,,,,"Select case size","Case of 12 Bottles",,1,no,,,,no,no,no,,no,,,,,,,,,,,,,,,,,,,,,,,,,,,,,,,,,,,,,,,,,,,,,,,,,,,,,,,,,,,,,,,,,,,,,,,,,,,,,,,,
10055,variation,,"Rocktails Citrus Spritz Distilled Botanical Blend alcohol free 250ml - Case of 12 Bottles",1,0,visible,,,,,taxable,parent,1,,0,0,,,,,0,,,23.99,,,,,,,id:10029,,,,,,1,,,,,,,,,,,,,,,,,,,,,,,,,,,,,,,,,,,,,,,,,,,,,,,"Select case size","Case of 12 Bottles",,1,no,,,,no,no,no,,no,,,,,,,,,,,,,,,,,,,,,,,,,,,,,,,,,,,,,,,,,,,,,,,,,,,,,,,,,,,,,,,,,,,,,,,,,,,,,,,,
